\relax 
\providecommand\hyper@newdestlabel[2]{}
\catcode `"\active 
\catcode `<\active 
\catcode `>\active 
\@nameuse{es@quoting}
\providecommand\HyperFirstAtBeginDocument{\AtBeginDocument}
\HyperFirstAtBeginDocument{\ifx\hyper@anchor\@undefined
\global\let\oldcontentsline\contentsline
\gdef\contentsline#1#2#3#4{\oldcontentsline{#1}{#2}{#3}}
\global\let\oldnewlabel\newlabel
\gdef\newlabel#1#2{\newlabelxx{#1}#2}
\gdef\newlabelxx#1#2#3#4#5#6{\oldnewlabel{#1}{{#2}{#3}}}
\AtEndDocument{\ifx\hyper@anchor\@undefined
\let\contentsline\oldcontentsline
\let\newlabel\oldnewlabel
\fi}
\fi}
\global\let\hyper@last\relax 
\gdef\HyperFirstAtBeginDocument#1{#1}
\providecommand\HyField@AuxAddToFields[1]{}
\providecommand\HyField@AuxAddToCoFields[2]{}
\providecommand\tcolorbox@label[2]{}
\select@language{spanish}
\@writefile{toc}{\select@language{spanish}}
\@writefile{lof}{\select@language{spanish}}
\@writefile{lot}{\select@language{spanish}}
\pgfsyspdfmark {pgfid1}{13579834}{44027081}
\pgfsyspdfmark {pgfid2}{13921710}{44027081}
\@writefile{toc}{\contentsline {section}{\numberline {1}Usurarios, grupos y permisos}{1}{section.1}}
\@writefile{toc}{\contentsline {subsection}{\numberline {1.1}Cambien usuario a root}{1}{subsection.1.1}}
\@writefile{lof}{\contentsline {figure}{\numberline {1}{\ignorespaces Comando su}}{2}{figure.1}}
\@writefile{toc}{\contentsline {subsection}{\numberline {1.2}Comando adduser}{2}{subsection.1.2}}
\@writefile{lof}{\contentsline {figure}{\numberline {2}{\ignorespaces Comando adduser para crear el usario labo02}}{2}{figure.2}}
\@writefile{toc}{\contentsline {subsection}{\numberline {1.3}Comando mkdir}{2}{subsection.1.3}}
\@writefile{lof}{\contentsline {figure}{\numberline {3}{\ignorespaces Comando mkdir para crear el directorio PruebasPermisos}}{2}{figure.3}}
\@writefile{toc}{\contentsline {subsection}{\numberline {1.4}Comando nano}{3}{subsection.1.4}}
\@writefile{lof}{\contentsline {figure}{\numberline {4}{\ignorespaces Comando para escribir archivo Readme}}{3}{figure.4}}
\@writefile{toc}{\contentsline {subsection}{\numberline {1.5}Comando chmod}{3}{subsection.1.5}}
\@writefile{lof}{\contentsline {figure}{\numberline {5}{\ignorespaces Comando chmod}}{3}{figure.5}}
\@writefile{toc}{\contentsline {subsection}{\numberline {1.6}Comando addgroup}{3}{subsection.1.6}}
\@writefile{lof}{\contentsline {figure}{\numberline {6}{\ignorespaces Comando addgroup}}{4}{figure.6}}
\@writefile{toc}{\contentsline {subsection}{\numberline {1.7}Usermod}{4}{subsection.1.7}}
\@writefile{lof}{\contentsline {figure}{\numberline {7}{\ignorespaces Comando usermod}}{4}{figure.7}}
\@writefile{toc}{\contentsline {subsection}{\numberline {1.8}Comando chgrp}{4}{subsection.1.8}}
\@writefile{lof}{\contentsline {figure}{\numberline {8}{\ignorespaces Comando chgrp}}{4}{figure.8}}
\@writefile{toc}{\contentsline {subsection}{\numberline {1.9}Discusi\IeC {\'o}n}{4}{subsection.1.9}}
\@writefile{toc}{\contentsline {section}{\numberline {2}Instalaci\IeC {\'o}n de paquetes y programas dese otros repositorios}{5}{section.2}}
\@writefile{lof}{\contentsline {figure}{\numberline {9}{\ignorespaces Instalaci\IeC {\'o}n de spotify}}{5}{figure.9}}
\@writefile{lof}{\contentsline {figure}{\numberline {10}{\ignorespaces Instalaci\IeC {\'o}n de spotify}}{5}{figure.10}}
\@writefile{lof}{\contentsline {figure}{\numberline {11}{\ignorespaces Instlaci\IeC {\'o}n de spotify}}{6}{figure.11}}
\@writefile{lof}{\contentsline {figure}{\numberline {12}{\ignorespaces Spotify instalado}}{6}{figure.12}}
\@writefile{toc}{\contentsline {section}{\numberline {3}Cron, crontab,rsync,ssh}{6}{section.3}}
\@writefile{toc}{\contentsline {subsection}{\numberline {3.1}Ssh y rsync}{6}{subsection.3.1}}
\@writefile{lof}{\contentsline {figure}{\numberline {13}{\ignorespaces Comando rsync}}{7}{figure.13}}
\@writefile{toc}{\contentsline {subsection}{\numberline {3.2}Cron y Crontab}{7}{subsection.3.2}}
\@writefile{lof}{\contentsline {figure}{\numberline {14}{\ignorespaces Estructura del comando ``crontab -e".}}{7}{figure.14}}
\newlabel{fig:crontab2}{{14}{7}{Estructura del comando ``crontab -e"}{figure.14}{}}
\@writefile{toc}{\contentsline {section}{\numberline {4}Instalaci\IeC {\'o}n de programas desde c\IeC {\'o}digo fuente}{8}{section.4}}
\@writefile{lof}{\contentsline {figure}{\numberline {15}{\ignorespaces Comando yasm}}{8}{figure.15}}
\@writefile{lof}{\contentsline {figure}{\numberline {16}{\ignorespaces Comando configure}}{8}{figure.16}}
\@writefile{lof}{\contentsline {figure}{\numberline {17}{\ignorespaces Comando make}}{9}{figure.17}}
\@writefile{lof}{\contentsline {figure}{\numberline {18}{\ignorespaces Comando make install}}{9}{figure.18}}
\bibcite{]}{0}
